…
### Distribution analysis

``` r
# Country-level mammal diversity summary
mdd_distribution_summary(level = "country")
#> # A tibble: 242 × 7
#>    region    orders families genera living_species extinct_species total_species
#>    <chr>      <int>    <int>  <int>          <int>           <int>         <int>
#>  1 Indonesia     17       58    241            793               4           797
#>  2 Brazil        11       51    250            785               3           788
#>  3 China         12       56    259            746               0           746
#>  4 Mexico        12       45    205            585               4           589
#>  5 Peru          13       55    229            582               0           582
#>  6 Colombia      13       51    213            532               0           532
#>  7 Democrat…     15       55    208            510               0           510
#>  8 United S…      9       41    164            488               3           491
#>  9 Ecuador       13       51    202            454               0           454
#> 10 India         12       51    202            438               0           438
#> # ℹ 232 more rows
…
